{
    "photos": {
        "page": 1,
        "pages": 8,
        "perpage": 15,
        "total": "111",
        "photo": [
            {
                "id": "49310547727",
                "owner": "127882799@N05",
                "secret": "2086781f12",
                "server": "65535",
                "farm": 66,
                "title": "envol",
                "ispublic": 1,
                "isfriend": 0,
                "isfamily": 0,
                "url_c": "https://live.staticflickr.com/65535/49310547727_2086781f12_c.jpg",
                "height_c": 800,
                "width_c": 533,
                "url_l": "https://live.staticflickr.com/65535/49310547727_2086781f12_b.jpg",
                "height_l": 1024,
                "width_l": 683
            },
            {
                "id": "48433306792",
                "owner": "127882799@N05",
                "secret": "91d01749eb",
                "server": "65535",
                "farm": 66,
                "title": "de profil",
                "ispublic": 1,
                "isfriend": 0,
                "isfamily": 0,
                "url_c": "https://live.staticflickr.com/65535/48433306792_91d01749eb_c.jpg",
                "height_c": 800,
                "width_c": 533,
                "url_l": "https://live.staticflickr.com/65535/48433306792_91d01749eb_b.jpg",
                "height_l": 1024,
                "width_l": 683
            },
            {
                "id": "48433137481",
                "owner": "127882799@N05",
                "secret": "fdec0c52f5",
                "server": "65535",
                "farm": 66,
                "title": "Etude pour un croquis",
                "ispublic": 1,
                "isfriend": 0,
                "isfamily": 0,
                "url_c": "https://live.staticflickr.com/65535/48433137481_fdec0c52f5_c.jpg",
                "height_c": 800,
                "width_c": 533,
                "url_l": "https://live.staticflickr.com/65535/48433137481_fdec0c52f5_b.jpg",
                "height_l": 1024,
                "width_l": 683
            },
            {
                "id": "48433128286",
                "owner": "127882799@N05",
                "secret": "0c043cde87",
                "server": "65535",
                "farm": 66,
                "title": "Belle toute seule",
                "ispublic": 1,
                "isfriend": 0,
                "isfamily": 0,
                "url_c": "https://live.staticflickr.com/65535/48433128286_0c043cde87_c.jpg",
                "height_c": 533,
                "width_c": 800,
                "url_l": "https://live.staticflickr.com/65535/48433128286_0c043cde87_b.jpg",
                "height_l": 683,
                "width_l": 1024
            },
            {
                "id": "32011059577",
                "owner": "127882799@N05",
                "secret": "f481996b3f",
                "server": "7838",
                "farm": 8,
                "title": "Paris,",
                "ispublic": 1,
                "isfriend": 0,
                "isfamily": 0,
                "url_c": "https://live.staticflickr.com/7838/32011059577_f481996b3f_c.jpg",
                "height_c": 800,
                "width_c": 533,
                "url_l": "https://live.staticflickr.com/7838/32011059577_f481996b3f_b.jpg",
                "height_l": 1024,
                "width_l": 683
            },
            {
                "id": "46857129232",
                "owner": "127882799@N05",
                "secret": "49f71e508f",
                "server": "7850",
                "farm": 8,
                "title": "Madame de fer, je vous prie.",
                "ispublic": 1,
                "isfriend": 0,
                "isfamily": 0,
                "url_c": "https://live.staticflickr.com/7850/46857129232_49f71e508f_c.jpg",
                "height_c": 800,
                "width_c": 533,
                "url_l": "https://live.staticflickr.com/7850/46857129232_49f71e508f_b.jpg",
                "height_l": 1024,
                "width_l": 683
            },
            {
                "id": "46821817832",
                "owner": "127882799@N05",
                "secret": "d1133a988e",
                "server": "7922",
                "farm": 8,
                "title": "Night tram #1",
                "ispublic": 1,
                "isfriend": 0,
                "isfamily": 0,
                "url_c": "https://live.staticflickr.com/7922/46821817832_d1133a988e_c.jpg",
                "height_c": 800,
                "width_c": 533,
                "url_l": "https://live.staticflickr.com/7922/46821817832_d1133a988e_b.jpg",
                "height_l": 1024,
                "width_l": 683
            },
            {
                "id": "46821841122",
                "owner": "127882799@N05",
                "secret": "d5aed3d8e5",
                "server": "7857",
                "farm": 8,
                "title": "Night tram #2",
                "ispublic": 1,
                "isfriend": 0,
                "isfamily": 0,
                "url_c": "https://live.staticflickr.com/7857/46821841122_d5aed3d8e5_c.jpg",
                "height_c": 800,
                "width_c": 533,
                "url_l": "https://live.staticflickr.com/7857/46821841122_d5aed3d8e5_b.jpg",
                "height_l": 1024,
                "width_l": 683
            },
            {
                "id": "44001081010",
                "owner": "127882799@N05",
                "secret": "30d6c153db",
                "server": "4828",
                "farm": 5,
                "title": "Lignes directrices..",
                "ispublic": 1,
                "isfriend": 0,
                "isfamily": 0,
                "url_c": "https://live.staticflickr.com/4828/44001081010_30d6c153db_c.jpg",
                "height_c": 533,
                "width_c": 800,
                "url_l": "https://live.staticflickr.com/4828/44001081010_30d6c153db_b.jpg",
                "height_l": 683,
                "width_l": 1024
            },
            {
                "id": "44000949120",
                "owner": "127882799@N05",
                "secret": "60003481c0",
                "server": "4883",
                "farm": 5,
                "title": "Non effrayé par la contre plongée",
                "ispublic": 1,
                "isfriend": 0,
                "isfamily": 0,
                "url_c": "https://live.staticflickr.com/4883/44000949120_60003481c0_c.jpg",
                "height_c": 800,
                "width_c": 533,
                "url_l": "https://live.staticflickr.com/4883/44000949120_60003481c0_b.jpg",
                "height_l": 1024,
                "width_l": 683
            },
            {
                "id": "44000949420",
                "owner": "127882799@N05",
                "secret": "f989fabc3b",
                "server": "4916",
                "farm": 5,
                "title": "La roue tourne",
                "ispublic": 1,
                "isfriend": 0,
                "isfamily": 0,
                "url_c": "https://live.staticflickr.com/4916/44000949420_f989fabc3b_c.jpg",
                "height_c": 800,
                "width_c": 533,
                "url_l": "https://live.staticflickr.com/4916/44000949420_f989fabc3b_b.jpg",
                "height_l": 1024,
                "width_l": 683
            },
            {
                "id": "44000949750",
                "owner": "127882799@N05",
                "secret": "c14f386ddd",
                "server": "4892",
                "farm": 5,
                "title": "Au détour d'une ruelle",
                "ispublic": 1,
                "isfriend": 0,
                "isfamily": 0,
                "url_c": "https://live.staticflickr.com/4892/44000949750_c14f386ddd_c.jpg",
                "height_c": 800,
                "width_c": 533,
                "url_l": "https://live.staticflickr.com/4892/44000949750_c14f386ddd_b.jpg",
                "height_l": 1024,
                "width_l": 683
            },
            {
                "id": "44711597251",
                "owner": "127882799@N05",
                "secret": "6ae8edcc7e",
                "server": "1884",
                "farm": 2,
                "title": "clarté",
                "ispublic": 1,
                "isfriend": 0,
                "isfamily": 0,
                "url_c": "https://live.staticflickr.com/1884/44711597251_6ae8edcc7e_c.jpg",
                "height_c": 533,
                "width_c": 800,
                "url_l": "https://live.staticflickr.com/1884/44711597251_6ae8edcc7e_b.jpg",
                "height_l": 683,
                "width_l": 1024
            },
            {
                "id": "42318223530",
                "owner": "127882799@N05",
                "secret": "5f2b247812",
                "server": "1897",
                "farm": 2,
                "title": "IMG_8705",
                "ispublic": 1,
                "isfriend": 0,
                "isfamily": 0,
                "url_c": "https://live.staticflickr.com/1897/42318223530_5f2b247812_c.jpg",
                "height_c": 533,
                "width_c": 800,
                "url_l": "https://live.staticflickr.com/1897/42318223530_5f2b247812_b.jpg",
                "height_l": 683,
                "width_l": 1024
            },
            {
                "id": "44078853872",
                "owner": "127882799@N05",
                "secret": "83942f51c7",
                "server": "1815",
                "farm": 2,
                "title": "Space end",
                "ispublic": 1,
                "isfriend": 0,
                "isfamily": 0,
                "url_c": "https://live.staticflickr.com/1815/44078853872_83942f51c7_c.jpg",
                "height_c": 533,
                "width_c": 800,
                "url_l": "https://live.staticflickr.com/1815/44078853872_83942f51c7_b.jpg",
                "height_l": 683,
                "width_l": 1024
            }
        ]
    },
    "stat": "ok"
}